-- Merging decision tree log ---
manifest
ADDED from Z:\__work\learning_tasks\geofencing\geofencing_unity_project_exported_to_android_studio\unityLibrary\src\main\AndroidManifest.xml:3:1-24:12
INJECTED from Z:\__work\learning_tasks\geofencing\geofencing_unity_project_exported_to_android_studio\unityLibrary\src\main\AndroidManifest.xml:3:1-24:12
INJECTED from Z:\__work\learning_tasks\geofencing\geofencing_unity_project_exported_to_android_studio\unityLibrary\src\main\AndroidManifest.xml:3:1-24:12
INJECTED from Z:\__work\learning_tasks\geofencing\geofencing_unity_project_exported_to_android_studio\unityLibrary\src\main\AndroidManifest.xml:3:1-24:12
INJECTED from Z:\__work\learning_tasks\geofencing\geofencing_unity_project_exported_to_android_studio\unityLibrary\src\main\AndroidManifest.xml:3:1-24:12
INJECTED from Z:\__work\learning_tasks\geofencing\geofencing_unity_project_exported_to_android_studio\unityLibrary\src\main\AndroidManifest.xml:3:1-24:12
INJECTED from Z:\__work\learning_tasks\geofencing\geofencing_unity_project_exported_to_android_studio\unityLibrary\src\main\AndroidManifest.xml:3:1-24:12
	package
		ADDED from Z:\__work\learning_tasks\geofencing\geofencing_unity_project_exported_to_android_studio\unityLibrary\src\main\AndroidManifest.xml:3:70-98
		INJECTED from Z:\__work\learning_tasks\geofencing\geofencing_unity_project_exported_to_android_studio\unityLibrary\src\main\AndroidManifest.xml
		INJECTED from Z:\__work\learning_tasks\geofencing\geofencing_unity_project_exported_to_android_studio\unityLibrary\src\main\AndroidManifest.xml
	android:versionName
		INJECTED from Z:\__work\learning_tasks\geofencing\geofencing_unity_project_exported_to_android_studio\unityLibrary\src\main\AndroidManifest.xml
		ADDED from Z:\__work\learning_tasks\geofencing\geofencing_unity_project_exported_to_android_studio\unityLibrary\src\main\AndroidManifest.xml:3:1-24:12
		INJECTED from Z:\__work\learning_tasks\geofencing\geofencing_unity_project_exported_to_android_studio\unityLibrary\src\main\AndroidManifest.xml
	xmlns:tools
		ADDED from Z:\__work\learning_tasks\geofencing\geofencing_unity_project_exported_to_android_studio\unityLibrary\src\main\AndroidManifest.xml:3:99-145
	android:versionCode
		INJECTED from Z:\__work\learning_tasks\geofencing\geofencing_unity_project_exported_to_android_studio\unityLibrary\src\main\AndroidManifest.xml
		ADDED from Z:\__work\learning_tasks\geofencing\geofencing_unity_project_exported_to_android_studio\unityLibrary\src\main\AndroidManifest.xml:3:1-24:12
		INJECTED from Z:\__work\learning_tasks\geofencing\geofencing_unity_project_exported_to_android_studio\unityLibrary\src\main\AndroidManifest.xml
	xmlns:android
		ADDED from Z:\__work\learning_tasks\geofencing\geofencing_unity_project_exported_to_android_studio\unityLibrary\src\main\AndroidManifest.xml:3:11-69
application
ADDED from Z:\__work\learning_tasks\geofencing\geofencing_unity_project_exported_to_android_studio\unityLibrary\src\main\AndroidManifest.xml:4:3-16:17
activity#com.unity3d.player.UnityPlayerOverridedActivity
ADDED from Z:\__work\learning_tasks\geofencing\geofencing_unity_project_exported_to_android_studio\unityLibrary\src\main\AndroidManifest.xml:5:5-12:16
	android:screenOrientation
		ADDED from Z:\__work\learning_tasks\geofencing\geofencing_unity_project_exported_to_android_studio\unityLibrary\src\main\AndroidManifest.xml:5:120-158
	android:launchMode
		ADDED from Z:\__work\learning_tasks\geofencing\geofencing_unity_project_exported_to_android_studio\unityLibrary\src\main\AndroidManifest.xml:5:159-190
	android:hardwareAccelerated
		ADDED from Z:\__work\learning_tasks\geofencing\geofencing_unity_project_exported_to_android_studio\unityLibrary\src\main\AndroidManifest.xml:5:373-408
	android:configChanges
		ADDED from Z:\__work\learning_tasks\geofencing\geofencing_unity_project_exported_to_android_studio\unityLibrary\src\main\AndroidManifest.xml:5:191-372
	android:theme
		ADDED from Z:\__work\learning_tasks\geofencing\geofencing_unity_project_exported_to_android_studio\unityLibrary\src\main\AndroidManifest.xml:5:78-119
	android:name
		ADDED from Z:\__work\learning_tasks\geofencing\geofencing_unity_project_exported_to_android_studio\unityLibrary\src\main\AndroidManifest.xml:5:15-77
intent-filter#action:name:android.intent.action.MAIN+category:name:android.intent.category.LAUNCHER
ADDED from Z:\__work\learning_tasks\geofencing\geofencing_unity_project_exported_to_android_studio\unityLibrary\src\main\AndroidManifest.xml:6:7-9:23
action#android.intent.action.MAIN
ADDED from Z:\__work\learning_tasks\geofencing\geofencing_unity_project_exported_to_android_studio\unityLibrary\src\main\AndroidManifest.xml:7:9-61
	android:name
		ADDED from Z:\__work\learning_tasks\geofencing\geofencing_unity_project_exported_to_android_studio\unityLibrary\src\main\AndroidManifest.xml:7:17-58
category#android.intent.category.LAUNCHER
ADDED from Z:\__work\learning_tasks\geofencing\geofencing_unity_project_exported_to_android_studio\unityLibrary\src\main\AndroidManifest.xml:8:9-69
	android:name
		ADDED from Z:\__work\learning_tasks\geofencing\geofencing_unity_project_exported_to_android_studio\unityLibrary\src\main\AndroidManifest.xml:8:19-66
meta-data#unityplayer.UnityActivity
ADDED from Z:\__work\learning_tasks\geofencing\geofencing_unity_project_exported_to_android_studio\unityLibrary\src\main\AndroidManifest.xml:10:7-82
	android:value
		ADDED from Z:\__work\learning_tasks\geofencing\geofencing_unity_project_exported_to_android_studio\unityLibrary\src\main\AndroidManifest.xml:10:59-79
	android:name
		ADDED from Z:\__work\learning_tasks\geofencing\geofencing_unity_project_exported_to_android_studio\unityLibrary\src\main\AndroidManifest.xml:10:18-58
meta-data#android.notch_support
ADDED from Z:\__work\learning_tasks\geofencing\geofencing_unity_project_exported_to_android_studio\unityLibrary\src\main\AndroidManifest.xml:11:7-78
	android:value
		ADDED from Z:\__work\learning_tasks\geofencing\geofencing_unity_project_exported_to_android_studio\unityLibrary\src\main\AndroidManifest.xml:11:55-75
	android:name
		ADDED from Z:\__work\learning_tasks\geofencing\geofencing_unity_project_exported_to_android_studio\unityLibrary\src\main\AndroidManifest.xml:11:18-54
meta-data#unity.splash-mode
ADDED from Z:\__work\learning_tasks\geofencing\geofencing_unity_project_exported_to_android_studio\unityLibrary\src\main\AndroidManifest.xml:13:5-69
	android:value
		ADDED from Z:\__work\learning_tasks\geofencing\geofencing_unity_project_exported_to_android_studio\unityLibrary\src\main\AndroidManifest.xml:13:49-66
	android:name
		ADDED from Z:\__work\learning_tasks\geofencing\geofencing_unity_project_exported_to_android_studio\unityLibrary\src\main\AndroidManifest.xml:13:16-48
meta-data#unity.splash-enable
ADDED from Z:\__work\learning_tasks\geofencing\geofencing_unity_project_exported_to_android_studio\unityLibrary\src\main\AndroidManifest.xml:14:5-74
	android:value
		ADDED from Z:\__work\learning_tasks\geofencing\geofencing_unity_project_exported_to_android_studio\unityLibrary\src\main\AndroidManifest.xml:14:51-71
	android:name
		ADDED from Z:\__work\learning_tasks\geofencing\geofencing_unity_project_exported_to_android_studio\unityLibrary\src\main\AndroidManifest.xml:14:16-50
meta-data#notch.config
ADDED from Z:\__work\learning_tasks\geofencing\geofencing_unity_project_exported_to_android_studio\unityLibrary\src\main\AndroidManifest.xml:15:5-81
	android:value
		ADDED from Z:\__work\learning_tasks\geofencing\geofencing_unity_project_exported_to_android_studio\unityLibrary\src\main\AndroidManifest.xml:15:44-78
	android:name
		ADDED from Z:\__work\learning_tasks\geofencing\geofencing_unity_project_exported_to_android_studio\unityLibrary\src\main\AndroidManifest.xml:15:16-43
uses-feature#0x00030000
ADDED from Z:\__work\learning_tasks\geofencing\geofencing_unity_project_exported_to_android_studio\unityLibrary\src\main\AndroidManifest.xml:17:3-52
	android:glEsVersion
		ADDED from Z:\__work\learning_tasks\geofencing\geofencing_unity_project_exported_to_android_studio\unityLibrary\src\main\AndroidManifest.xml:17:17-49
uses-feature#android.hardware.vulkan.version
ADDED from Z:\__work\learning_tasks\geofencing\geofencing_unity_project_exported_to_android_studio\unityLibrary\src\main\AndroidManifest.xml:18:3-91
	android:required
		ADDED from Z:\__work\learning_tasks\geofencing\geofencing_unity_project_exported_to_android_studio\unityLibrary\src\main\AndroidManifest.xml:18:64-88
	android:name
		ADDED from Z:\__work\learning_tasks\geofencing\geofencing_unity_project_exported_to_android_studio\unityLibrary\src\main\AndroidManifest.xml:18:17-63
uses-permission#android.permission.INTERNET
ADDED from Z:\__work\learning_tasks\geofencing\geofencing_unity_project_exported_to_android_studio\unityLibrary\src\main\AndroidManifest.xml:19:3-65
	android:name
		ADDED from Z:\__work\learning_tasks\geofencing\geofencing_unity_project_exported_to_android_studio\unityLibrary\src\main\AndroidManifest.xml:19:20-62
uses-permission#android.permission.ACCESS_NETWORK_STATE
ADDED from Z:\__work\learning_tasks\geofencing\geofencing_unity_project_exported_to_android_studio\unityLibrary\src\main\AndroidManifest.xml:20:3-77
	android:name
		ADDED from Z:\__work\learning_tasks\geofencing\geofencing_unity_project_exported_to_android_studio\unityLibrary\src\main\AndroidManifest.xml:20:20-74
uses-feature#android.hardware.touchscreen
ADDED from Z:\__work\learning_tasks\geofencing\geofencing_unity_project_exported_to_android_studio\unityLibrary\src\main\AndroidManifest.xml:21:3-88
	android:required
		ADDED from Z:\__work\learning_tasks\geofencing\geofencing_unity_project_exported_to_android_studio\unityLibrary\src\main\AndroidManifest.xml:21:61-85
	android:name
		ADDED from Z:\__work\learning_tasks\geofencing\geofencing_unity_project_exported_to_android_studio\unityLibrary\src\main\AndroidManifest.xml:21:17-60
uses-feature#android.hardware.touchscreen.multitouch
ADDED from Z:\__work\learning_tasks\geofencing\geofencing_unity_project_exported_to_android_studio\unityLibrary\src\main\AndroidManifest.xml:22:3-99
	android:required
		ADDED from Z:\__work\learning_tasks\geofencing\geofencing_unity_project_exported_to_android_studio\unityLibrary\src\main\AndroidManifest.xml:22:72-96
	android:name
		ADDED from Z:\__work\learning_tasks\geofencing\geofencing_unity_project_exported_to_android_studio\unityLibrary\src\main\AndroidManifest.xml:22:17-71
uses-feature#android.hardware.touchscreen.multitouch.distinct
ADDED from Z:\__work\learning_tasks\geofencing\geofencing_unity_project_exported_to_android_studio\unityLibrary\src\main\AndroidManifest.xml:23:3-108
	android:required
		ADDED from Z:\__work\learning_tasks\geofencing\geofencing_unity_project_exported_to_android_studio\unityLibrary\src\main\AndroidManifest.xml:23:81-105
	android:name
		ADDED from Z:\__work\learning_tasks\geofencing\geofencing_unity_project_exported_to_android_studio\unityLibrary\src\main\AndroidManifest.xml:23:17-80
uses-sdk
INJECTED from Z:\__work\learning_tasks\geofencing\geofencing_unity_project_exported_to_android_studio\unityLibrary\src\main\AndroidManifest.xml reason: use-sdk injection requested
INJECTED from Z:\__work\learning_tasks\geofencing\geofencing_unity_project_exported_to_android_studio\unityLibrary\src\main\AndroidManifest.xml
INJECTED from Z:\__work\learning_tasks\geofencing\geofencing_unity_project_exported_to_android_studio\unityLibrary\src\main\AndroidManifest.xml
INJECTED from Z:\__work\learning_tasks\geofencing\geofencing_unity_project_exported_to_android_studio\unityLibrary\src\main\AndroidManifest.xml
INJECTED from Z:\__work\learning_tasks\geofencing\geofencing_unity_project_exported_to_android_studio\unityLibrary\src\main\AndroidManifest.xml
	android:targetSdkVersion
		INJECTED from Z:\__work\learning_tasks\geofencing\geofencing_unity_project_exported_to_android_studio\unityLibrary\src\main\AndroidManifest.xml
		ADDED from Z:\__work\learning_tasks\geofencing\geofencing_unity_project_exported_to_android_studio\unityLibrary\src\main\AndroidManifest.xml
		INJECTED from Z:\__work\learning_tasks\geofencing\geofencing_unity_project_exported_to_android_studio\unityLibrary\src\main\AndroidManifest.xml
	android:minSdkVersion
		INJECTED from Z:\__work\learning_tasks\geofencing\geofencing_unity_project_exported_to_android_studio\unityLibrary\src\main\AndroidManifest.xml
		ADDED from Z:\__work\learning_tasks\geofencing\geofencing_unity_project_exported_to_android_studio\unityLibrary\src\main\AndroidManifest.xml
		INJECTED from Z:\__work\learning_tasks\geofencing\geofencing_unity_project_exported_to_android_studio\unityLibrary\src\main\AndroidManifest.xml
